
strategic_region={
	id=111
	name="STRATEGICREGION_111"
	provinces={
		10639 10642 10664 10792 10796 10822 10901 10948 10986 10997 11043 11049 11086 11099 11148 11168 11184 11305 11315 11327 11360 11384 11398 11448 11452 11490 11526 11576 11600 11641 11642 11653 11762 11776 11818 11826 11837 11849 11921 
	}
	weather={
		period={
			between={ 0.0 30.0 }
			temperature={ -5.0 7.0 }
			temperature_day_night={ 5.0 -5.0 }
			no_phenomenon=0.500
			rain_light=1.000
			rain_heavy=0.150
			snow=0.20
			blizzard=0.00
			mud=0.3
			sandstorm=0.000
			min_snow_level=0.000
		}
		period={
			between={ 0.1 27.1 }
			temperature={ 0.0 7.0 }
			temperature_day_night={ 5.0 -5.0 }
			no_phenomenon=0.500
			rain_light=1.000
			rain_heavy=0.150
			snow=0.20
			blizzard=0.05
			mud=0.3
			sandstorm=0.000
			min_snow_level=0.000
		}
		period={
			between={ 0.2 30.2 }
			temperature={ 3.0 6.0 }
			temperature_day_night={ 5.0 -5.0 }
			no_phenomenon=0.500
			rain_light=1.000
			rain_heavy=0.150
			snow=0.150
			blizzard=0.0
			mud=0.3
			sandstorm=0.000
			min_snow_level=0.000
		}
		period={
			between={ 0.3 29.3 }
			temperature={ 0.0 12.0 }
			temperature_day_night={ 5.0 -5.0 }
			no_phenomenon=0.500
			rain_light=1.000
			rain_heavy=0.150
			snow=0.000
			blizzard=0.000
			mud=0.3
			sandstorm=0.000
			min_snow_level=0.000
		}
		period={
			between={ 0.4 30.4 }
			temperature={ 8.0 17.0 }
			temperature_day_night={ 5.0 -5.0 }
			no_phenomenon=0.500
			rain_light=1.000
			rain_heavy=0.150
			snow=0.000
			blizzard=0.000
			mud=0.3
			sandstorm=0.000
			min_snow_level=0.000
		}
		period={
			between={ 0.5 29.5 }
			temperature={ 11.0 20.0 }
			temperature_day_night={ 5.0 -5.0 }
			no_phenomenon=0.500
			rain_light=1.000
			rain_heavy=0.150
			snow=0.000
			blizzard=0.000
			mud=0.3
			sandstorm=0.000
			min_snow_level=0.000
		}
		period={
			between={ 0.6 30.6 }
			temperature={ 12.0 22.0 }
			temperature_day_night={ 5.0 -5.0 }
			no_phenomenon=0.500
			rain_light=1.000
			rain_heavy=0.150
			snow=0.000
			blizzard=0.000
			mud=0.3
			sandstorm=0.000
			min_snow_level=0.000
		}
		period={
			between={ 0.7 30.7 }
			temperature={ 12.0 21.0 }
			temperature_day_night={ 5.0 -5.0 }
			no_phenomenon=0.500
			rain_light=1.000
			rain_heavy=0.150
			snow=0.000
			blizzard=0.000
			mud=0.3
			sandstorm=0.000
			min_snow_level=0.000
		}
		period={
			between={ 0.8 29.8 }
			temperature={ 9.0 18.0 }
			temperature_day_night={ 5.0 -5.0 }
			no_phenomenon=0.500
			rain_light=1.000
			rain_heavy=0.150
			snow=0.000
			blizzard=0.000
			mud=0.3
			sandstorm=0.000
			min_snow_level=0.000
		}
		period={
			between={ 0.9 30.9 }
			temperature={ 2.0 12.0 }
			temperature_day_night={ 5.0 -5.0 }
			no_phenomenon=0.500
			rain_light=1.000
			rain_heavy=0.150
			snow=0.050
			blizzard=0.000
			mud=0.3
			sandstorm=0.000
			min_snow_level=0.000
		}
		period={
			between={ 0.10 29.10 }
			temperature={ 0.0 8.0 }
			temperature_day_night={ 5.0 -5.0 }
			no_phenomenon=0.500
			rain_light=1.000
			rain_heavy=0.150
			snow=0.210
			blizzard=0.000
			mud=0.3
			sandstorm=0.000
			min_snow_level=0.000
		}
		period={
			between={ 0.11 30.11 }
			temperature={ -3.0 5.0 }
			temperature_day_night={ 5.0 -5.0 }
			no_phenomenon=0.500
			rain_light=1.000
			rain_heavy=0.150
			snow=0.20
			blizzard=0.00
			mud=0.3
			sandstorm=0.000
			min_snow_level=0.000
		}
	}
}