
state={
	id=141
	name="STATE_141"

	history={
		owner = DEB
		buildings
		= {
			infrastructure = 5
			arms_factory = 1
			industrial_complex = 1
			anti_air_building = 1

		}

	}

	provinces={
		2870 2904 3058 3113 3299 3314 3373 3386 3425 3459 3486 3521 3539 3576 3604 3608 3609 3667 3733 3755 3784 3924 3926 4006 4052 4096 4223 4233 4339 4376 4383 4461 4496 4517 4601 4863 
	}
	manpower=1000000
	buildings_max_level_factor=1.000
	state_category=megalopolis
}
