
state={
	id=202
	name="STATE_202"
	provinces={
		6225 6346 6763 6767 6973 
}
	manpower=1000000
	buildings_max_level_factor=1.000
	state_category = megalopolis

	history={
		owner = ERU
		buildings = {
			infrastructure = 5
			arms_factory = 1
			industrial_complex = 1
			anti_air_building = 1
		}
}