
state={
	id=242
	name="STATE_242"
	provinces={
		1710 1771 
}
	manpower=1000000
	buildings_max_level_factor=1.000
	state_category = megalopolis

	history={
		owner = LEA
		buildings = {
			infrastructure = 5
			arms_factory = 1
			industrial_complex = 1
			anti_air_building = 1
		}
}