state={
	id=280
	name="STATE_280"
	provinces={
		6924 7000 7087 
}
	manpower=1000000
	buildings_max_level_factor=1.000
	state_category = megalopolis

	history={
		owner = DEB
		buildings = {
			infrastructure = 5
			arms_factory = 1
			industrial_complex = 1
			anti_air_building = 1
		}
}