state={
	id=333
	name="STATE_333"
	provinces={
		5147 5217 5387 5546 
}
	manpower=1000000
	buildings_max_level_factor=1.000
	state_category = megalopolis

	history={
		owner = DEB
		buildings = {
			infrastructure = 5
			arms_factory = 1
			industrial_complex = 1
			anti_air_building = 1
		}
}