state={
	id=365
	name="STATE_365"
	provinces={
		10355 10381 10487 10496 10607 10622 10660 10695 10775 10801 10827 10840 10892 10961 10962 11002 11027 11050 11065 11116 11133 11185 11197 11202 11245 11278 11283 11358 11371 11375 11406 11415 11416 11424 11428 11431 11432 11453 11517 11529 11571 11573 11578 11617 11624 11626 11629 11633 11678 11681 11692 11735 11761 11831 
}
	manpower=1000000
	buildings_max_level_factor=1.000
	state_category = megalopolis

	history={
		owner = WEL
		buildings = {
			infrastructure = 5
			arms_factory = 1
			industrial_complex = 1
			anti_air_building = 1
		}
}